{
    "realm": "noroff",
    "auth-server-url": "https://acc-keycloak.herokuapp.com/auth/",
    "ssl-required": "external",
    "resource": "angular-client",
    "public-client": true,
    "confidential-port": 0
}